…
##  Max.   : 60.0    
##  NA's   :1134420
str(cleaned_noaa)
## tibble [2,595,176 × 9] (S3: tbl_df/tbl/data.frame)
##  $ id   : chr [1:2595176] "US1NYAB0001" "US1NYAB0001" "US1NYAB0001" "US1NYAB0001" ...
##  $ year : chr [1:2595176] "2007-11-01" "2007-11-02" "2007-11-0" "2007-11-04" ...
##  $ month: chr [1:2595176] NA NA "" NA ...
##  $ day  : chr [1:2595176] NA NA NA NA ...
##  $ prcp : num [1:2595176] NA NA NA NA NA NA NA NA NA NA ...
##  $ snow : int [1:2595176] NA NA NA NA NA NA NA NA NA NA ...
##  $ snwd : int [1:2595176] NA NA NA NA NA NA NA NA NA NA ...
##  $ tmax : num [1:2595176] NA NA NA NA NA NA NA NA NA NA ...
##  $ tmin : num [1:2595176] NA NA NA NA NA NA NA NA NA NA ...
cleaned_noaa
## # A tibble: 2,595,176 × 9
##    id          year       month day    prcp  snow  snwd  tmax  tmin
##    <chr>       <chr>      <chr> <chr> <dbl> <int> <int> <dbl> <dbl>
##  1 US1NYAB0001 2007-11-01 <NA>  <NA>     NA    NA    NA    NA    NA
##  2 US1NYAB0001 2007-11-02 <NA>  <NA>     NA    NA    NA    NA    NA
##  3 US1NYAB0001 2007-11-0  ""    <NA>     NA    NA    NA    NA    NA
##  4 US1NYAB0001 2007-11-04 <NA>  <NA>     NA    NA    NA    NA    NA
##  5 US1NYAB0001 2007-11-05 <NA>  <NA>     NA    NA    NA    NA    NA
##  6 US1NYAB0001 2007-11-06 <NA>  <NA>     NA    NA    NA    NA    NA
##  7 US1NYAB0001 2007-11-07 <NA>  <NA>     NA    NA    NA    NA    NA
##  8 US1NYAB0001 2007-11-08 <NA>  <NA>     NA    NA    NA    NA    NA
##  9 US1NYAB0001 2007-11-09 <NA>  <NA>     NA    NA    NA    NA    NA
## 10 US1NYAB0001 2007-11-10 <NA>  <NA>     NA    NA    NA    NA    NA
## # ℹ 2,595,166 more rows
```

# Most common observed snowfall values

``` r
cleaned_noaa %>%
group_by(snow) %>%
  summarize(count = n()) %>%
  arrange(desc(count))
## # A tibble: 282 × 2
##     snow   count
##    <int>   <int>
##  1     0 2008508
##  2    NA  381221
##  3    25   31022
##  4    13   23095
##  5    51   18274
##  6    76   10173
##  7     8    9962
##  8     5    9748
##  9    38    9197
## 10     3    8790
## # ℹ 272 more rows
```
…
